Lesson 5: An introduction to they tidyverse
…
group_by() = groups data based on a key (e.g., a factor)

summarise() = creates summary statistics on grouped data 

Selecting columns and filtering rows - select() and filter()

To select only the columns that we’re interested in we can make use of the select() function. This can be particularly important when working with a tibble that is very large since we have already discovered that printing a tibble will only display the number of columns that fit on our screen - we want to make sure that these are the columns we are interested in.

Using the $ operator is quite convenient for selecting a single column and extracting the values as a vector. Selecting several columns using the [] subsetting operator is a bit more cumbersome.

## Subsetting columns based on []
rna_tbl[, c("gene", "expression", "age", "sex")]

## # A tibble: 32,428 × 4
##    gene    expression   age sex   
##    <chr>        <dbl> <dbl> <chr> 
##  1 Asl           1170     8 Female
##  2 Apod         36194     8 Female
##  3 Cyp2d22       4060     8 Female
##  4 Klk6           287     8 Female
##  5 Fcrls           85     8 Female
##  6 Slc2a4         782     8 Female
##  7 Exd2          1619     8 Female
##  8 Gjc2           288     8 Female
##  9 Plp1         43217     8 Female
## 10 Gnb4          1071     8 Female
## # ℹ 32,418 more rows

## Subsetting columns using select()
rna_tbl %>%
  select(gene, expression, age, sex)

## # A tibble: 32,428 × 4
##    gene    expression   age sex   
##    <chr>        <dbl> <dbl> <chr> 
##  1 Asl           1170     8 Female
##  2 Apod         36194     8 Female
##  3 Cyp2d22       4060     8 Female
##  4 Klk6           287     8 Female
##  5 Fcrls           85     8 Female
##  6 Slc2a4         782     8 Female
##  7 Exd2          1619     8 Female
##  8 Gjc2           288     8 Female
##  9 Plp1         43217     8 Female
## 10 Gnb4          1071     8 Female
## # ℹ 32,418 more rows
…
Creating new columns with mutate()

It is very common to want to modify a column or create a new column based on existing columns. For example, we might want to convert units (multiply all values in a column by a conversion factor) or find the ratio between two columns. For this we can use the mutate() function.

Let’s create a new column in our data which stores time in hours rather than days.

## Use mutate() to create new columns
rna_tbl %>%
  mutate(time_hrs = time * 24) %>%
  select(time, time_hrs)

## # A tibble: 32,428 × 2
##     time time_hrs
##    <dbl>    <dbl>
##  1     8      192
##  2     8      192
##  3     8      192
##  4     8      192
##  5     8      192
##  6     8      192
##  7     8      192
##  8     8      192
##  9     8      192
## 10     8      192
## # ℹ 32,418 more rows

When the mutate() function is executed, each new column is generated one-by-one. This means that we can actually create a second column based on our new column, all within a single command.

## Use mutate to create new columns
rna_tbl %>%
  mutate(time_hrs = time * 24, 
         time_mins = time_hrs * 60) %>%
  select(time, time_hrs, time_mins)

## # A tibble: 32,428 × 3
##     time time_hrs time_mins
##    <dbl>    <dbl>     <dbl>
##  1     8      192     11520
##  2     8      192     11520
##  3     8      192     11520
##  4     8      192     11520
##  5     8      192     11520
##  6     8      192     11520
##  7     8      192     11520
##  8     8      192     11520
##  9     8      192     11520
## 10     8      192     11520
## # ℹ 32,418 more rows

Split-apply-combine data analysis using group_by() and summarise()

Most data contains information about groups, and these are often defined by factors. For example, in our data we have males and females, time points 0, 4 and 8 days and all of our genes. In some cases we may want to do analysis on a per-group basis. Hence, we split the data into groups, apply some analysis to each group, and then combine the results. This process is made easy by the group_by() function.

rna_tbl %>%
  group_by(sex) 

## # A tibble: 32,428 × 19
## # Groups:   sex [2]
##    gene    sample     expression organism     age sex   infection strain  time tissue mouse ENTREZID product ensembl_gene_id
##    <chr>   <chr>           <dbl> <chr>      <dbl> <chr> <chr>     <chr>  <dbl> <chr>  <dbl>    <dbl> <chr>   <chr>          
##  1 Asl     GSM2545336       1170 Mus muscu…     8 Fema… Influenz… C57BL…     8 Cereb…    14   109900 argini… ENSMUSG0000002…
##  2 Apod    GSM2545336      36194 Mus muscu…     8 Fema… Influenz… C57BL…     8 Cereb…    14    11815 apolip… ENSMUSG0000002…
##  3 Cyp2d22 GSM2545336       4060 Mus muscu…     8 Fema… Influenz… C57BL…     8 Cereb…    14    56448 cytoch… ENSMUSG0000006…
##  4 Klk6    GSM2545336        287 Mus muscu…     8 Fema… Influenz… C57BL…     8 Cereb…    14    19144 kallik… ENSMUSG0000005…
##  5 Fcrls   GSM2545336         85 Mus muscu…     8 Fema… Influenz… C57BL…     8 Cereb…    14    80891 Fc rec… ENSMUSG0000001…
##  6 Slc2a4  GSM2545336        782 Mus muscu…     8 Fema… Influenz… C57BL…     8 Cereb…    14    20528 solute… ENSMUSG0000001…
##  7 Exd2    GSM2545336       1619 Mus muscu…     8 Fema… Influenz… C57BL…     8 Cereb…    14    97827 exonuc… ENSMUSG0000003…
##  8 Gjc2    GSM2545336        288 Mus muscu…     8 Fema… Influenz… C57BL…     8 Cereb…    14   118454 gap ju… ENSMUSG0000004…
##  9 Plp1    GSM2545336      43217 Mus muscu…     8 Fema… Influenz… C57BL…     8 Cereb…    14    18823 proteo… ENSMUSG0000003…
## 10 Gnb4    GSM2545336       1071 Mus muscu…     8 Fema… Influenz… C57BL…     8 Cereb…    14    14696 guanin… ENSMUSG0000002…
## # ℹ 32,418 more rows
## # ℹ 5 more variables: external_synonym <chr>, chromosome_name <chr>, gene_biotype <chr>, phenotype_description <chr>,
## #   hsapiens_homolog_associated_gene_name <chr>

We can see at the top of our tibble that we have two groups based on the factor sex. We could similarly group by time point.

rna_tbl %>%
  group_by(time)

## # A tibble: 32,428 × 19
## # Groups:   time [3]
##    gene    sample     expression organism     age sex   infection strain  time tissue mouse ENTREZID product ensembl_gene_id
##    <chr>   <chr>           <dbl> <chr>      <dbl> <chr> <chr>     <chr>  <dbl> <chr>  <dbl>    <dbl> <chr>   <chr>          
##  1 Asl     GSM2545336       1170 Mus muscu…     8 Fema… Influenz… C57BL…     8 Cereb…    14   109900 argini… ENSMUSG0000002…
##  2 Apod    GSM2545336      36194 Mus muscu…     8 Fema… Influenz… C57BL…     8 Cereb…    14    11815 apolip… ENSMUSG0000002…
##  3 Cyp2d22 GSM2545336       4060 Mus muscu…     8 Fema… Influenz… C57BL…     8 Cereb…    14    56448 cytoch… ENSMUSG0000006…
##  4 Klk6    GSM2545336        287 Mus muscu…     8 Fema… Influenz… C57BL…     8 Cereb…    14    19144 kallik… ENSMUSG0000005…
##  5 Fcrls   GSM2545336         85 Mus muscu…     8 Fema… Influenz… C57BL…     8 Cereb…    14    80891 Fc rec… ENSMUSG0000001…
##  6 Slc2a4  GSM2545336        782 Mus muscu…     8 Fema… Influenz… C57BL…     8 Cereb…    14    20528 solute… ENSMUSG0000001…
##  7 Exd2    GSM2545336       1619 Mus muscu…     8 Fema… Influenz… C57BL…     8 Cereb…    14    97827 exonuc… ENSMUSG0000003…
##  8 Gjc2    GSM2545336        288 Mus muscu…     8 Fema… Influenz… C57BL…     8 Cereb…    14   118454 gap ju… ENSMUSG0000004…
##  9 Plp1    GSM2545336      43217 Mus muscu…     8 Fema… Influenz… C57BL…     8 Cereb…    14    18823 proteo… ENSMUSG0000003…
## 10 Gnb4    GSM2545336       1071 Mus muscu…     8 Fema… Influenz… C57BL…     8 Cereb…    14    14696 guanin… ENSMUSG0000002…
## # ℹ 32,418 more rows
## # ℹ 5 more variables: external_synonym <chr>, chromosome_name <chr>, gene_biotype <chr>, phenotype_description <chr>,
## #   hsapiens_homolog_associated_gene_name <chr>
…
