Lesson 6: Data visualisation with ggplot
…
facet_grid() = creates a grid of plots for each combination of variables specified, even if these do not have values

Let’s get some data to plot. Create a new tibble called plotting_data that contains the median expression value for each gene at each time.

plotting_data <- rna_tbl %>%
  filter(gene %in% rna_tbl$gene[1:10]) %>%                      # Take the top 10 gene names only
  group_by(time, gene) %>%
  summarise(med_exp = median(expression, na.rm = TRUE)) %>%      # Get median expression of these 10 genes at each timepoint
  select(gene, time, med_exp)                                  # Select only relevant columns

## `summarise()` has grouped output by 'time'. You can override using the `.groups` argument.

plotting_data

## # A tibble: 30 × 3
## # Groups:   time [3]
##    gene     time med_exp
##    <chr>   <dbl>   <dbl>
##  1 Apod        0   11258
##  2 Asl         0     481
##  3 Cyp2d22     0    1883
##  4 Exd2        0    2488
##  5 Fcrls       0     248
##  6 Gjc2        0     595
##  7 Gnb4        0    1791
##  8 Klk6        0     742
##  9 Plp1        0   96534
## 10 Slc2a4      0     249
## # ℹ 20 more rows
…
 Right now we only have a one-dimensional grid because be are only faceting on a single variable. If we wanted to see the median gene expression over time separately for males and females, we could group_by sex as well as gene and time. This way we can facet sex against gene and we get an even more informative plot.

plotting_data_2 <- rna_tbl %>%
  filter(gene %in% rna_tbl$gene[1:10]) %>%                      # Take the top 10 gene names only
  group_by(time, gene, sex) %>%
  summarise(med_exp = median(expression, na.rm = TRUE)) %>%      # Get median expression of these 10 genes at each timepoint for each sex
  select(gene, time, med_exp, sex)                               # Select only relevant columns

## `summarise()` has grouped output by 'time', 'gene'. You can override using the `.groups` argument.

plotting_data_2

## # A tibble: 60 × 4
## # Groups:   time, gene [30]
##    gene     time med_exp sex   
##    <chr>   <dbl>   <dbl> <chr> 
##  1 Apod        0  10802. Female
##  2 Apod        0  11812  Male  
##  3 Asl         0    447  Female
##  4 Asl         0    481  Male  
##  5 Cyp2d22     0   1750. Female
##  6 Cyp2d22     0   2008  Male  
##  7 Exd2        0   2500. Female
##  8 Exd2        0   2488  Male  
##  9 Fcrls       0    264. Female
## 10 Fcrls       0    248  Male  
## # ℹ 50 more rows
…
